<?xml version="1.0" encoding="utf-8"?>
<!-- Generator: Adobe Illustrator 15.1.0, SVG Export Plug-In . SVG Version: 6.00 Build 0)  -->
<!DOCTYPE svg PUBLIC "-//W3C//DTD SVG 1.1//EN" "http://www.w3.org/Graphics/SVG/1.1/DTD/svg11.dtd">
<svg version="1.1" id="Layer_1" xmlns="http://www.w3.org/2000/svg" xmlns:xlink="http://www.w3.org/1999/xlink" x="0px" y="0px"
	 width="507.924px" height="268.051px" viewBox="0 0 507.924 268.051" enable-background="new 0 0 507.924 268.051"
	 xml:space="preserve">
<g id="cdr_x5F_layer1">
</g>
<g id="cdr_x5F_layer2">
	<g>
		<g>
			<path fill="#008544" d="M458.402,177.732c-0.101,0.22-0.202,0.438-0.304,0.658C458.2,178.17,458.301,177.952,458.402,177.732z
				 M457.086,180.466c-0.13,0.255-0.261,0.509-0.393,0.763C456.826,180.975,456.957,180.721,457.086,180.466z M455.611,183.234
				c-0.148,0.267-0.3,0.533-0.453,0.799C455.311,183.768,455.461,183.5,455.611,183.234z M454.034,185.925
				c-0.188,0.308-0.381,0.614-0.574,0.923C453.654,186.541,453.846,186.232,454.034,185.925z M452.324,188.6
				c-0.209,0.313-0.421,0.627-0.634,0.938C451.904,189.227,452.115,188.913,452.324,188.6z M450.487,191.25
				c-0.257,0.355-0.519,0.712-0.781,1.066C449.968,191.962,450.23,191.607,450.487,191.25z M448.48,193.932
				c-33.691,43.373-117.864,74.119-216.377,74.119C103.917,268.051,0,215.997,0,151.8c0-29.861,22.493-57.091,59.444-77.681
				c-10.147,13.064-15.726,27.271-15.726,42.132c0,64.197,103.917,116.25,232.103,116.25
				C344.381,232.501,405.991,217.607,448.48,193.932z M59.453,74.115c0.608-0.34,1.223-0.677,1.839-1.012
				C60.676,73.439,60.062,73.775,59.453,74.115z M62.55,72.426c0.882-0.473,1.77-0.942,2.668-1.407
				C64.321,71.484,63.432,71.953,62.55,72.426z M66.458,70.383c0.932-0.476,1.871-0.948,2.819-1.416
				C68.329,69.435,67.39,69.907,66.458,70.383z M70.487,68.376c0.954-0.464,1.915-0.923,2.885-1.379
				C72.402,67.453,71.44,67.912,70.487,68.376z M74.688,66.383c0.938-0.434,1.884-0.864,2.836-1.291
				C76.573,65.519,75.626,65.949,74.688,66.383z M78.987,64.443c0.887-0.39,1.779-0.776,2.678-1.159
				C80.766,63.667,79.873,64.053,78.987,64.443z M83.361,62.565c0.646-0.271,1.294-0.541,1.947-0.808
				C84.655,62.025,84.007,62.294,83.361,62.565z M87.792,60.755c0.659-0.263,1.319-0.523,1.984-0.782
				C89.113,60.232,88.451,60.492,87.792,60.755z M92.396,58.967c0.632-0.239,1.269-0.476,1.905-0.712
				C93.665,58.491,93.029,58.728,92.396,58.967z M96.691,57.383c0.738-0.266,1.481-0.53,2.227-0.792
				C98.172,56.853,97.429,57.117,96.691,57.383z M101.019,55.861c0.858-0.295,1.72-0.587,2.587-0.876
				C102.739,55.274,101.876,55.566,101.019,55.861z M105.743,54.28c0.825-0.27,1.654-0.535,2.487-0.799
				C107.398,53.745,106.569,54.011,105.743,54.28z M110.578,52.747c0.715-0.221,1.431-0.44,2.15-0.656
				C112.009,52.307,111.292,52.527,110.578,52.747z M115.555,51.254c0.54-0.158,1.08-0.315,1.623-0.471
				C116.635,50.939,116.095,51.096,115.555,51.254z M120.546,49.84c0.549-0.151,1.098-0.302,1.649-0.451
				C121.644,49.538,121.095,49.689,120.546,49.84z M125.644,48.478c0.542-0.141,1.085-0.28,1.63-0.418
				C126.729,48.198,126.186,48.337,125.644,48.478z M130.827,47.176c0.516-0.126,1.034-0.249,1.554-0.373
				C131.862,46.927,131.343,47.05,130.827,47.176z M136.087,45.936c0.474-0.108,0.95-0.214,1.426-0.32
				C137.037,45.722,136.561,45.828,136.087,45.936z M141.096,44.831c0.509-0.109,1.019-0.216,1.529-0.323
				C142.115,44.615,141.604,44.722,141.096,44.831z M151.513,42.753c0.387-0.071,0.773-0.145,1.161-0.215
				C152.286,42.608,151.9,42.682,151.513,42.753z"/>
			<path fill="#A6CE39" d="M275.822,0c128.188,0,232.104,52.054,232.104,116.251c0,29.861-22.492,57.091-59.444,77.681
				c10.148-13.063,15.727-27.271,15.727-42.132c0-64.197-103.917-116.251-232.104-116.251c-68.56,0-130.169,14.895-172.658,38.57
				C93.137,30.745,177.309,0,275.822,0z M448.473,193.936c-0.609,0.34-1.225,0.678-1.841,1.013
				C447.25,194.611,447.864,194.275,448.473,193.936z M445.375,195.625c-0.883,0.473-1.771,0.941-2.668,1.407
				C443.605,196.566,444.493,196.098,445.375,195.625z M441.467,197.667c-0.933,0.476-1.871,0.948-2.819,1.416
				C439.596,198.616,440.535,198.143,441.467,197.667z M437.439,199.675c-0.954,0.464-1.915,0.923-2.884,1.378
				C435.524,200.598,436.486,200.139,437.439,199.675z M433.237,201.667c-0.938,0.435-1.884,0.864-2.837,1.29
				C431.353,202.532,432.297,202.102,433.237,201.667z M428.939,203.607c-0.886,0.391-1.779,0.776-2.679,1.16
				C427.159,204.384,428.053,203.998,428.939,203.607z M424.565,205.486c-0.646,0.271-1.295,0.541-1.948,0.808
				C423.27,206.025,423.916,205.757,424.565,205.486z M420.133,207.295c-0.658,0.264-1.32,0.523-1.984,0.782
				C418.813,207.818,419.475,207.559,420.133,207.295z M415.529,209.083c-0.632,0.239-1.269,0.478-1.906,0.711
				C414.259,209.561,414.897,209.323,415.529,209.083z M411.235,210.667c-0.739,0.267-1.48,0.53-2.227,0.792
				C409.753,211.198,410.495,210.934,411.235,210.667z M406.906,212.189c-0.857,0.295-1.721,0.588-2.587,0.877
				C405.186,212.777,406.048,212.484,406.906,212.189z M402.183,213.771c-0.826,0.269-1.656,0.535-2.489,0.799
				C400.528,214.307,401.357,214.04,402.183,213.771z M397.348,215.305c-0.716,0.221-1.434,0.438-2.152,0.654
				C395.915,215.743,396.632,215.523,397.348,215.305z M392.37,216.796c-0.541,0.157-1.079,0.315-1.624,0.472
				C391.29,217.111,391.829,216.954,392.37,216.796z M387.379,218.21c-0.55,0.151-1.1,0.304-1.65,0.451
				C386.281,218.514,386.83,218.361,387.379,218.21z M382.281,219.573c-0.542,0.142-1.086,0.28-1.63,0.418
				C381.196,219.854,381.74,219.714,382.281,219.573z M377.099,220.875c-0.519,0.126-1.035,0.249-1.555,0.373
				C376.064,221.124,376.582,221,377.099,220.875z M371.838,222.115c-0.475,0.107-0.949,0.213-1.427,0.32
				C370.889,222.328,371.365,222.223,371.838,222.115z M366.828,223.22c-0.508,0.108-1.018,0.216-1.528,0.322
				C365.81,223.436,366.321,223.329,366.828,223.22z M356.412,225.296c-0.387,0.072-0.771,0.146-1.16,0.218
				C355.64,225.443,356.026,225.369,356.412,225.296z M50.838,87.585c0.131-0.258,0.263-0.516,0.396-0.773
				C51.102,87.069,50.969,87.327,50.838,87.585z M52.305,84.832c0.158-0.282,0.318-0.563,0.479-0.844
				C52.623,84.269,52.463,84.55,52.305,84.832z M53.89,82.128c0.192-0.312,0.386-0.625,0.583-0.937
				C54.276,81.503,54.082,81.815,53.89,82.128z M55.585,79.475c0.219-0.33,0.44-0.658,0.666-0.986
				C56.026,78.817,55.805,79.145,55.585,79.475z M57.43,76.812c0.26-0.36,0.523-0.72,0.79-1.079
				C57.954,76.092,57.688,76.452,57.43,76.812z"/>
		</g>
		<path fill="#008544" d="M133.477,98.565c-1.605-2.088-3.874-3.835-6.805-5.24c-2.931-1.405-5.883-2.108-8.854-2.108
			c-1.767,0-3.532,0.221-5.3,0.663c-1.767,0.441-3.373,1.124-4.817,2.048c-1.446,0.923-2.631,2.128-3.555,3.613
			c-0.924,1.486-1.385,3.272-1.385,5.36c0,1.928,0.402,3.574,1.204,4.939c0.803,1.365,1.908,2.53,3.313,3.493
			c1.405,0.964,3.112,1.808,5.119,2.53c2.008,0.723,4.216,1.446,6.625,2.168c2.731,0.884,5.563,1.887,8.493,3.012
			c2.931,1.124,5.621,2.609,8.071,4.457c2.449,1.847,4.457,4.176,6.021,6.986c1.567,2.811,2.35,6.304,2.35,10.48
			c0,4.577-0.844,8.572-2.529,11.986c-1.687,3.413-3.935,6.243-6.746,8.492c-2.811,2.248-6.103,3.934-9.878,5.059
			c-3.774,1.124-7.749,1.687-11.925,1.687c-5.541,0-10.962-1.023-16.261-3.071c-5.302-2.048-9.638-5.079-13.011-9.095l10.842-10.118
			c2.088,2.891,4.879,5.179,8.371,6.866c3.493,1.686,6.928,2.529,10.3,2.529c1.767,0,3.573-0.22,5.421-0.662
			c1.847-0.442,3.513-1.184,4.999-2.228c1.484-1.044,2.689-2.349,3.612-3.916c0.925-1.565,1.387-3.513,1.387-5.841
			c0-2.249-0.522-4.116-1.566-5.602c-1.044-1.485-2.45-2.77-4.217-3.854c-1.766-1.084-3.854-2.028-6.263-2.832
			c-2.409-0.802-4.939-1.646-7.59-2.529c-2.568-0.803-5.14-1.766-7.709-2.891c-2.569-1.124-4.879-2.61-6.926-4.457
			c-2.048-1.847-3.715-4.115-4.999-6.805c-1.285-2.691-1.928-6.043-1.928-10.059c0-4.336,0.903-8.07,2.71-11.202
			c1.808-3.132,4.176-5.722,7.108-7.77c2.93-2.048,6.263-3.573,9.998-4.577c3.733-1.004,7.527-1.506,11.383-1.506
			c4.336,0,8.732,0.763,13.189,2.289s8.331,3.814,11.624,6.866L133.477,98.565z M195.977,131.329c0-1.846-0.261-3.613-0.782-5.3
			c-0.522-1.686-1.346-3.172-2.47-4.457c-1.124-1.285-2.55-2.308-4.275-3.071c-1.728-0.763-3.755-1.144-6.083-1.144
			c-4.337,0-8.012,1.304-11.022,3.914c-3.012,2.61-4.678,5.963-4.999,10.058H195.977z M210.432,137.834c0,0.643,0,1.285,0,1.927
			c0,0.643-0.04,1.285-0.12,1.928h-43.967c0.16,2.088,0.703,3.995,1.626,5.722c0.924,1.726,2.148,3.211,3.674,4.457
			c1.526,1.244,3.253,2.228,5.181,2.951c1.927,0.722,3.935,1.084,6.022,1.084c3.613,0,6.665-0.663,9.154-1.988
			c2.49-1.325,4.538-3.152,6.144-5.481l9.637,7.71c-5.701,7.709-13.974,11.563-24.814,11.563c-4.497,0-8.633-0.703-12.407-2.109
			c-3.774-1.405-7.047-3.392-9.817-5.962c-2.771-2.57-4.938-5.722-6.504-9.456c-1.566-3.734-2.35-7.97-2.35-12.708
			c0-4.658,0.783-8.894,2.35-12.708c1.565-3.815,3.714-7.068,6.444-9.758c2.73-2.69,5.962-4.777,9.696-6.263
			c3.735-1.486,7.77-2.229,12.105-2.229c4.016,0,7.729,0.663,11.143,1.988c3.414,1.325,6.365,3.292,8.854,5.902
			c2.489,2.61,4.438,5.863,5.843,9.757C209.729,128.057,210.432,132.614,210.432,137.834z M221.497,74.955h14.455v91.066h-14.455
			V74.955z M250.63,74.955h14.455v91.066H250.63V74.955z M320.237,131.329c0-1.846-0.261-3.613-0.783-5.3
			c-0.521-1.686-1.345-3.172-2.469-4.457c-1.125-1.285-2.55-2.308-4.275-3.071c-1.728-0.763-3.756-1.144-6.083-1.144
			c-4.338,0-8.012,1.304-11.022,3.914c-3.012,2.61-4.678,5.963-4.998,10.058H320.237z M334.692,137.834c0,0.643,0,1.285,0,1.927
			c0,0.643-0.04,1.285-0.121,1.928h-43.966c0.16,2.088,0.702,3.995,1.626,5.722c0.923,1.726,2.147,3.211,3.674,4.457
			c1.525,1.244,3.252,2.228,5.181,2.951c1.926,0.722,3.935,1.084,6.021,1.084c3.614,0,6.665-0.663,9.155-1.988
			c2.489-1.325,4.536-3.152,6.143-5.481l9.637,7.71c-5.701,7.709-13.973,11.563-24.813,11.563c-4.497,0-8.634-0.703-12.407-2.109
			c-3.774-1.405-7.047-3.392-9.817-5.962c-2.771-2.57-4.938-5.722-6.505-9.456c-1.564-3.734-2.349-7.97-2.349-12.708
			c0-4.658,0.783-8.894,2.349-12.708c1.566-3.815,3.714-7.068,6.444-9.758c2.729-2.69,5.964-4.777,9.697-6.263
			c3.732-1.486,7.77-2.229,12.104-2.229c4.016,0,7.729,0.663,11.144,1.988c3.412,1.325,6.364,3.292,8.854,5.902
			c2.49,2.61,4.438,5.863,5.843,9.757C333.989,128.057,334.692,132.614,334.692,137.834z M345.516,108.201h13.853v9.637h0.24
			c1.605-3.373,3.854-6.103,6.746-8.191c2.891-2.088,6.264-3.132,10.118-3.132c0.563,0,1.165,0.02,1.807,0.06
			c0.643,0.04,1.205,0.141,1.687,0.302v13.25c-0.963-0.241-1.785-0.401-2.469-0.482c-0.683-0.08-1.346-0.12-1.987-0.12
			c-3.293,0-5.942,0.602-7.95,1.806c-2.008,1.205-3.573,2.651-4.697,4.337c-1.124,1.687-1.887,3.413-2.289,5.18
			c-0.401,1.766-0.602,3.172-0.602,4.216v30.957h-14.455L345.516,108.201L345.516,108.201z M417.894,123.62
			c-1.285-1.686-3.053-3.152-5.302-4.396c-2.248-1.245-4.696-1.867-7.349-1.867c-2.329,0-4.457,0.481-6.384,1.445
			c-1.927,0.964-2.892,2.569-2.892,4.818c0,2.248,1.063,3.835,3.191,4.758c2.128,0.924,5.241,1.867,9.336,2.831
			c2.168,0.482,4.356,1.124,6.565,1.927c2.208,0.804,4.216,1.867,6.021,3.192c1.809,1.326,3.273,2.972,4.397,4.939
			c1.125,1.968,1.686,4.356,1.686,7.167c0,3.534-0.661,6.525-1.985,8.975c-1.325,2.449-3.093,4.436-5.301,5.962
			c-2.208,1.526-4.777,2.63-7.709,3.313c-2.933,0.682-5.964,1.023-9.096,1.023c-4.497,0-8.874-0.824-13.13-2.47
			s-7.789-3.995-10.6-7.046l9.516-8.914c1.605,2.088,3.694,3.814,6.264,5.179c2.569,1.366,5.422,2.048,8.555,2.048
			c1.044,0,2.105-0.121,3.189-0.361c1.085-0.241,2.088-0.623,3.013-1.145s1.666-1.224,2.229-2.108
			c0.563-0.883,0.842-1.967,0.842-3.252c0-2.409-1.103-4.136-3.312-5.18c-2.208-1.044-5.521-2.088-9.938-3.132
			c-2.168-0.481-4.274-1.104-6.323-1.867c-2.049-0.762-3.874-1.766-5.48-3.011c-1.606-1.245-2.891-2.791-3.854-4.638
			c-0.965-1.847-1.444-4.135-1.444-6.866c0-3.212,0.662-5.983,1.985-8.311c1.325-2.329,3.071-4.236,5.24-5.722
			c2.168-1.486,4.617-2.59,7.349-3.312c2.729-0.723,5.541-1.085,8.433-1.085c4.175,0,8.251,0.723,12.226,2.169
			c3.977,1.445,7.128,3.653,9.456,6.625L417.894,123.62z"/>
	</g>
</g>
<g id="cdr_x5F_layer3">
</g>
<g id="cdr_x5F_layer4">
</g>
<g id="MasterLayer_1">
</g>
</svg>
